﻿"nose","0.972601592540741","332.199492872807","142.07149275097464"
"leftEye","0.9215090870857239","337.57123385721246","139.45070738913256"
"rightEye","0.979213297367096","326.12439845272905","138.57461851242687"
"leftEar","0.3269197642803192","340.85061829922023","141.48639284844052"
"rightEar","0.9379976987838745","316.01107532285573","139.79789153874265"
"leftShoulder","0.9832422733306885","345.9254309819688","170.7647455226608"
"rightShoulder","0.9964478611946106","310.76763904117934","169.68121801900583"
"leftElbow","0.9251606464385986","344.0853054946394","196.7808464303119"
"rightElbow","0.9370408654212952","323.44534295808967","207.79757553606237"
"leftWrist","0.9506250023841858","370.7223516691033","178.7345234831871"
"rightWrist","0.89447420835495","356.0354608308967","175.00100892422023"
"leftHip","0.9872143268585205","321.9063718323587","229.2075185794347"
"rightHip","0.9939449429512024","295.6440363060429","229.0988212719298"
"leftKnee","0.9536893963813782","344.83415570175436","243.54159052144246"
"rightKnee","0.9197533130645752","299.02994791666663","249.7225268031189"
"leftAnkle","0.9523264169692993","335.08547301413256","292.8363334551657"
"rightAnkle","0.957854151725769","284.9056179946394","303.5417428118908"