﻿"nose","0.8494450449943542","281.7461872658534","70.23772301032528"
"leftEye","0.6788085699081421","283.08687265853433","66.91089652435124"
"rightEye","0.21209588646888733","284.8028350294682","66.97421603732639"
"leftEar","0.9009063243865967","290.3822692514163","72.03820658008954"
"rightEar","0.20760640501976013","303.4575523688779","71.67908071774488"
"leftShoulder","0.9679718017578125","285.1253933376736","98.31528691520467"
"rightShoulder","0.8972590565681458","318.5941283465826","95.34944233141445"
"leftElbow","0.789219081401825","269.90565249794406","142.8871913262975"
"rightElbow","0.918026328086853","329.36786852384864","145.7462422331871"
"leftWrist","0.9238499999046326","250.7696497510051","174.0751210709064"
"rightWrist","0.9117023348808289","340.8640008223684","167.54607261970028"
"leftHip","0.9667619466781616","289.52021013226425","164.53389842607822"
"rightHip","0.9256163239479065","300.14195135462353","164.27323190789474"
"leftKnee","0.9611036777496338","257.2331657186586","227.53949081688592"
"rightKnee","0.8236480951309204","272.40361442342834","222.62326959978066"
"leftAnkle","0.8371313810348511","262.50626413445724","279.7694512975146"
"rightAnkle","0.7576380372047424","263.54286238464","279.250152766356"