﻿"321.46575749269005","229.26238121345028","341.9634046052631","175.7930525097466"
"352.90223714668616","202.7338419834308","341.9634046052631","175.7930525097466"
"352.90223714668616","202.7338419834308","365.45866075779725","176.08518366228066"
"321.46575749269005","229.26238121345028","345.3327927022417","240.66920230263156"
"345.3327927022417","240.66920230263156","338.7270041423002","293.57509442007796"
"295.7169834307992","228.5069444444444","311.0619593689084","174.32824683235867"
"320.50229197124753","208.01771137914227","311.0619593689084","174.32824683235867"
"320.50229197124753","208.01771137914227","352.50513980263156","176.17800469054578"
"295.7169834307992","228.5069444444444","297.15007462231966","245.17532437865498"
"297.15007462231966","245.17532437865498","287.0422149122807","303.6364293981481"
"341.9634046052631","175.7930525097466","311.0619593689084","174.32824683235867"
"321.46575749269005","229.26238121345028","295.7169834307992","228.5069444444444"