.
├── image_0004.jpg
├── image_0005.jpg
├── image_0006.jpg
├── image_0007.jpg
├── image_0008.jpg
├── image_0009.jpg
├── image_00092.jpg
├── image_0010.jpg
├── image_00102.jpg
├── image_00103.jpg
├── image_0011.jpg
├── image_00112.jpg
├── image_0012.jpg
├── image_00122.jpg
└── image_0013.jpg

0 directories, 15 files
