﻿"305.42163514254383","197.30807596247564","312.8443287037037","114.17142574317737"
"351.1306423611111","161.09643411915204","312.8443287037037","114.17142574317737"
"351.1306423611111","161.09643411915204","262.8022203947368","206.34693287037032"
"305.42163514254383","197.30807596247564","273.6313657407407","267.9627725999025"
"273.6313657407407","267.9627725999025","267.267871284113","335.61997441520464"
"319.4266645346004","195.48645376461985","303.54762503045805","108.23373538011694"
"321.8465216861598","162.23446256700777","303.54762503045805","108.23373538011694"
"321.8465216861598","162.23446256700777","370.56435032894734","184.15539717348923"
"319.4266645346004","195.48645376461985","311.17198921783626","268.9619121588694"
"311.17198921783626","268.9619121588694","263.19077043737815","339.97331109892787"
"312.8443287037037","114.17142574317737","303.54762503045805","108.23373538011694"
"305.42163514254383","197.30807596247564","319.4266645346004","195.48645376461985"