﻿"282.83932334498354","153.66924798976606","284.9822284185398","91.63625616776315"
"293.8296669407895","120.18300552814327","284.9822284185398","91.63625616776315"
"293.8296669407895","120.18300552814327","267.89374100534536","169.9443259434393"
"282.83932334498354","153.66924798976606","268.69246276498535","216.69704147249632"
"268.69246276498535","216.69704147249632","273.6202306914748","279.30069415889983"
"293.9147056891904","151.41912092242325","299.7843781409905","92.23611396655701"
"302.7341965346308","134.6463922868695","299.7843781409905","92.23611396655701"
"302.7341965346308","134.6463922868695","308.2462422331871","151.05672914382308"
"293.9147056891904","151.41912092242325","272.9675471434119","217.83843458744514"
"272.9675471434119","217.83843458744514","322.8766904239766","177.81468441611838"
"284.9822284185398","91.63625616776315","299.7843781409905","92.23611396655701"
"282.83932334498354","153.66924798976606","293.9147056891904","151.41912092242325"