﻿"293.83691263477704","128.56875414039655","295.42786001461985","88.63707425301533"
"292.8370425575658","127.59394060101425","295.42786001461985","88.63707425301533"
"292.8370425575658","127.59394060101425","286.7006179184941","140.45097841853982"
"293.83691263477704","128.56875414039655","281.642730891356","162.53208807337353"
"281.642730891356","162.53208807337353","275.6429393389071","275.7575497989766"
"291.4132279959338","127.55392866525034","298.35305018731725","87.75122570015532"
"311.2855074698465","116.19960494905882","298.35305018731725","87.75122570015532"
"311.2855074698465","116.19960494905882","286.09751204998173","139.28899039999084"
"291.4132279959338","127.55392866525034","281.6170854178088","161.1250671029788"
"281.6170854178088","161.1250671029788","268.8031826800073","277.78441668951024"
"295.42786001461985","88.63707425301533","298.35305018731725","87.75122570015532"
"293.83691263477704","128.56875414039655","291.4132279959338","127.55392866525034"